sim/tb.vcd
$date
	Thu Aug 25 15:18:02 2022
$end
$version
	Icarus Verilog
$end
$timescale
	1ns
$end
$scope module tb $end
$var wire 32 ! x26 [31:0] $end
$var wire 32 " x27 [31:0] $end
$var wire 32 # x3 [31:0] $end
$var reg 1 $ clk $end
$var reg 1 % rst_n $end
$var integer 32 & r [31:0] $end
$scope module open_risc_v_soc1 $end
$var wire 1 $ clk $end
$var wire 1 % rst_n $end
$var wire 32 ' rom_inst_o [31:0] $end
$var wire 32 ( risc_v_top_inst_addr_o [31:0] $end
$scope module open_risc_v1 $end
$var wire 1 $ clk $end
$var wire 1 % rst_n $end
$var wire 32 ) regs_reg2_rdata_o [31:0] $end
$var wire 32 * regs_reg1_rdata_o [31:0] $end
$var wire 32 + pc_reg_pc_o [31:0] $end
$var wire 32 , inst_i [31:0] $end
$var wire 32 - inst_addr_o [31:0] $end
$var wire 32 . if_inst_o [31:0] $end
$var wire 32 / if_inst_addr_o [31:0] $end
$var wire 32 0 if_id_inst_o [31:0] $end
$var wire 32 1 if_id_inst_addr_o [31:0] $end
$var wire 5 2 id_rs2_addr_o [4:0] $end
$var wire 5 3 id_rs1_addr_o [4:0] $end
$var wire 1 4 id_reg_wen $end
$var wire 5 5 id_rd_addr_o [4:0] $end
$var wire 32 6 id_op2_o [31:0] $end
$var wire 32 7 id_op1_o [31:0] $end
$var wire 32 8 id_inst_o [31:0] $end
$var wire 32 9 id_inst_addr_o [31:0] $end
$var wire 1 : id_ex_reg_wen_o $end
$var wire 5 ; id_ex_rd_addr_o [4:0] $end
$var wire 32 < id_ex_op2_o [31:0] $end
$var wire 32 = id_ex_op1_o [31:0] $end
$var wire 32 > id_ex_inst_o [31:0] $end
$var wire 32 ? id_ex_inst_addr_o [31:0] $end
$var wire 1 @ ex_rd_wen_o $end
$var wire 32 A ex_rd_data_o [31:0] $end
$var wire 5 B ex_rd_addr_o [4:0] $end
$var wire 1 C ex_jump_en_o $end
$var wire 32 D ex_jump_addr_o [31:0] $end
$var wire 1 E ex_hold_flag_o $end
$var wire 1 F ctrl_jump_en_o $end
$var wire 32 G ctrl_jump_addr_o [31:0] $end
$var wire 1 H ctrl_hold_flag_o $end
$scope module ctrl1 $end
$var wire 1 C jump_en_i $end
$var wire 32 I jump_addr_i [31:0] $end
$var wire 1 E hold_flag_ex_i $end
$var reg 1 H hold_flag_o $end
$var reg 32 J jump_addr_o [31:0] $end
$var reg 1 F jump_en_o $end
$upscope $end
$scope module ex1 $end
$var wire 32 K op1_i_and_op2_i [31:0] $end
$var wire 32 L op1_i_or_op2_i [31:0] $end
$var wire 32 M op1_i_xor_op2_i [31:0] $end
$var wire 5 N rs2 [4:0] $end
$var wire 5 O rs1 [4:0] $end
$var wire 1 : rd_wen_i $end
$var wire 5 P rd_addr_i [4:0] $end
$var wire 5 Q rd [4:0] $end
$var wire 7 R opcode [6:0] $end
$var wire 32 S op2_i [31:0] $end
$var wire 32 T op1_i_srl_op2_i [31:0] $end
$var wire 32 U op1_i_sll_op2_i [31:0] $end
$var wire 1 V op1_i_ltu_op2_i $end
$var wire 1 W op1_i_lt_op2_i $end
$var wire 1 X op1_i_equal_op2_i $end
$var wire 32 Y op1_i_add_op2_i [31:0] $end
$var wire 32 Z op1_i [31:0] $end
$var wire 32 [ jump_imm [31:0] $end
$var wire 32 \ inst_i [31:0] $end
$var wire 32 ] inst_addr_i [31:0] $end
$var wire 12 ^ imm [11:0] $end
$var wire 7 _ funct7 [6:0] $end
$var wire 3 ` funct3 [2:0] $end
$var wire 32 a base_addr_add_addr_offset [31:0] $end
$var wire 32 b base_addr_add_4 [31:0] $end
$var wire 32 c SRA_mask [31:0] $end
$var reg 1 E hold_flag_o $end
$var reg 32 d jump_addr_o [31:0] $end
$var reg 1 C jump_en_o $end
$var reg 5 e rd_addr_o [4:0] $end
$var reg 32 f rd_data_o [31:0] $end
$var reg 1 @ rd_wen_o $end
$upscope $end
$scope module id1 $end
$var wire 5 g shamt [4:0] $end
$var wire 32 h rs2_data_i [31:0] $end
$var wire 5 i rs2 [4:0] $end
$var wire 32 j rs1_data_i [31:0] $end
$var wire 5 k rs1 [4:0] $end
$var wire 5 l rd [4:0] $end
$var wire 7 m opcode [6:0] $end
$var wire 32 n inst_i [31:0] $end
$var wire 32 o inst_addr_i [31:0] $end
$var wire 12 p imm [11:0] $end
$var wire 7 q funct7 [6:0] $end
$var wire 3 r funct3 [2:0] $end
$var reg 32 s inst_addr_o [31:0] $end
$var reg 32 t inst_o [31:0] $end
$var reg 32 u op1_o [31:0] $end
$var reg 32 v op2_o [31:0] $end
$var reg 5 w rd_addr_o [4:0] $end
$var reg 1 4 reg_wen $end
$var reg 5 x rs1_addr_o [4:0] $end
$var reg 5 y rs2_addr_o [4:0] $end
$upscope $end
$scope module id_ex1 $end
$var wire 1 $ clk $end
$var wire 1 H hold_flag_i $end
$var wire 32 z inst_addr_i [31:0] $end
$var wire 32 { inst_i [31:0] $end
$var wire 32 | op1_i [31:0] $end
$var wire 32 } op2_i [31:0] $end
$var wire 5 ~ rd_addr_i [4:0] $end
$var wire 1 4 reg_wen_i $end
$var wire 1 % rst_n $end
$var wire 1 : reg_wen_o $end
$var wire 5 !" rd_addr_o [4:0] $end
$var wire 32 "" op2_o [31:0] $end
$var wire 32 #" op1_o [31:0] $end
$var wire 32 $" inst_o [31:0] $end
$var wire 32 %" inst_addr_o [31:0] $end
$scope module dff1 $end
$var wire 1 $ clk $end
$var wire 32 &" data_i [31:0] $end
$var wire 1 H hold_flag_i $end
$var wire 1 % rst_n $end
$var wire 32 '" set_data [31:0] $end
$var parameter 32 (" DW $end
$var reg 32 )" data_o [31:0] $end
$upscope $end
$scope module dff2 $end
$var wire 1 $ clk $end
$var wire 32 *" data_i [31:0] $end
$var wire 1 H hold_flag_i $end
$var wire 1 % rst_n $end
$var wire 32 +" set_data [31:0] $end
$var parameter 32 ," DW $end
$var reg 32 -" data_o [31:0] $end
$upscope $end
$scope module dff3 $end
$var wire 1 $ clk $end
$var wire 32 ." data_i [31:0] $end
$var wire 1 H hold_flag_i $end
$var wire 1 % rst_n $end
$var wire 32 /" set_data [31:0] $end
$var parameter 32 0" DW $end
$var reg 32 1" data_o [31:0] $end
$upscope $end
$scope module dff4 $end
$var wire 1 $ clk $end
$var wire 32 2" data_i [31:0] $end
$var wire 1 H hold_flag_i $end
$var wire 1 % rst_n $end
$var wire 32 3" set_data [31:0] $end
$var parameter 32 4" DW $end
$var reg 32 5" data_o [31:0] $end
$upscope $end
$scope module dff5 $end
$var wire 1 $ clk $end
$var wire 5 6" data_i [4:0] $end
$var wire 1 H hold_flag_i $end
$var wire 1 % rst_n $end
$var wire 5 7" set_data [4:0] $end
$var parameter 32 8" DW $end
$var reg 5 9" data_o [4:0] $end
$upscope $end
$scope module dff6 $end
$var wire 1 $ clk $end
$var wire 1 4 data_i $end
$var wire 1 H hold_flag_i $end
$var wire 1 % rst_n $end
$var wire 1 :" set_data $end
$var parameter 32 ;" DW $end
$var reg 1 : data_o $end
$upscope $end
$upscope $end
$scope module if_id1 $end
$var wire 1 $ clk $end
$var wire 1 H hold_flag_i $end
$var wire 1 % rst_n $end
$var wire 32 <" inst_o [31:0] $end
$var wire 32 =" inst_i [31:0] $end
$var wire 32 >" inst_addr_o [31:0] $end
$var wire 32 ?" inst_addr_i [31:0] $end
$scope module dff1 $end
$var wire 1 $ clk $end
$var wire 1 H hold_flag_i $end
$var wire 1 % rst_n $end
$var wire 32 @" set_data [31:0] $end
$var wire 32 A" data_i [31:0] $end
$var parameter 32 B" DW $end
$var reg 32 C" data_o [31:0] $end
$upscope $end
$scope module dff2 $end
$var wire 1 $ clk $end
$var wire 1 H hold_flag_i $end
$var wire 1 % rst_n $end
$var wire 32 D" set_data [31:0] $end
$var wire 32 E" data_i [31:0] $end
$var parameter 32 F" DW $end
$var reg 32 G" data_o [31:0] $end
$upscope $end
$upscope $end
$scope module ifetch1 $end
$var wire 32 H" if2rom_addr_o [31:0] $end
$var wire 32 I" inst_addr_o [31:0] $end
$var wire 32 J" inst_o [31:0] $end
$var wire 32 K" rom_inst_i [31:0] $end
$var wire 32 L" pc_addr_i [31:0] $end
$upscope $end
$scope module pc_reg1 $end
$var wire 1 $ clk $end
$var wire 32 M" jump_addr_i [31:0] $end
$var wire 1 F jump_en_i $end
$var wire 1 % rst_n $end
$var reg 32 N" pc_o [31:0] $end
$upscope $end
$scope module regs1 $end
$var wire 1 $ clk $end
$var wire 5 O" reg1_raddr_i [4:0] $end
$var wire 5 P" reg2_raddr_i [4:0] $end
$var wire 5 Q" reg_waddr_i [4:0] $end
$var wire 32 R" reg_wdata_i [31:0] $end
$var wire 1 @ reg_wen $end
$var wire 1 % rst_n $end
$var reg 32 S" reg1_rdata_o [31:0] $end
$var reg 32 T" reg2_rdata_o [31:0] $end
$var integer 32 U" i [31:0] $end
$upscope $end
$upscope $end
$scope module rom1 $end
$var wire 32 V" inst_addr_i [31:0] $end
$var reg 32 W" inst_o [31:0] $end
$upscope $end
$upscope $end
$upscope $end
$enddefinitions $end
$comment Show the parameter values. $end
$dumpall
b100000 F"
b100000 B"
b1 ;"
b101 8"
b100000 4"
b100000 0"
b100000 ,"
b100000 ("
$end
#0
$dumpvars
b110100010011 W"
b0 V"
b100000 U"
b0 T"
b0 S"
b0 R"
b0 Q"
b0 P"
b0 O"
b0 N"
b0 M"
b0 L"
b110100010011 K"
b110100010011 J"
b0 I"
b0 H"
b0 G"
b0 E"
b0 D"
b10011 C"
b110100010011 A"
b10011 @"
b0 ?"
b0 >"
b110100010011 ="
b10011 <"
0:"
b0 9"
b0 7"
b0 6"
b0 5"
b0 3"
b0 2"
b0 1"
b0 /"
b0 ."
b0 -"
b0 +"
b0 *"
b10011 )"
b10011 '"
b10011 &"
b0 %"
b10011 $"
b0 #"
b0 ""
b0 !"
b0 ~
b0 }
b0 |
b10011 {
b0 z
b0 y
b0 x
b0 w
b0 v
b0 u
b10011 t
b0 s
b0 r
b0 q
b0 p
b0 o
b10011 n
b10011 m
b0 l
b0 k
b0 j
b0 i
b0 h
b0 g
b0 f
b0 e
b0 d
b11111111111111111111111111111111 c
b100 b
b0 a
b0 `
b0 _
b0 ^
b0 ]
b10011 \
b0 [
b0 Z
b0 Y
1X
0W
0V
b0 U
b0 T
b0 S
b10011 R
b0 Q
b0 P
b0 O
b0 N
b0 M
b0 L
b0 K
b0 J
b0 I
0H
b0 G
0F
0E
b0 D
0C
b0 B
b0 A
1@
b0 ?
b10011 >
b0 =
b0 <
b0 ;
0:
b0 9
b10011 8
b0 7
b0 6
b0 5
14
b0 3
b0 2
b0 1
b10011 0
b0 /
b110100010011 .
b0 -
b110100010011 ,
b0 +
b0 *
b0 )
b0 (
b110100010011 '
bx &
0%
1$
b0 #
b0 "
b0 !
$end
#10
0$
#20
b100000 U"
1$
#30
1%
0$
#40
b11010 5
b11010 w
b11010 ~
b11010 6"
b11010 l
b110100010011 8
b110100010011 t
b110100010011 {
b110100010011 &"
b110110010011 .
b110110010011 ="
b110110010011 A"
b110110010011 J"
b110110010011 '
b110110010011 ,
b110110010011 K"
b110110010011 W"
b110100010011 0
b110100010011 n
b110100010011 <"
b110100010011 C"
1:
b100 /
b100 ?"
b100 E"
b100 I"
b100 (
b100 -
b100 H"
b100 V"
b100 +
b100 L"
b100 N"
1$
#50
0$
#60
b11011 5
b11011 w
b11011 ~
b11011 6"
b11010 B
b11010 e
b11010 Q"
b11010 a
b11010 [
b11010 Q
b11011 l
b100 9
b100 s
b100 z
b100 *"
b110110010011 8
b110110010011 t
b110110010011 {
b110110010011 &"
b10010011 .
b10010011 ="
b10010011 A"
b10010011 J"
b10010011 '
b10010011 ,
b10010011 K"
b10010011 W"
b11010 ;
b11010 P
b11010 !"
b11010 9"
b110100010011 >
b110100010011 \
b110100010011 $"
b110100010011 )"
b100 1
b100 o
b100 >"
b100 G"
b110110010011 0
b110110010011 n
b110110010011 <"
b110110010011 C"
b1000 /
b1000 ?"
b1000 E"
b1000 I"
b1000 (
b1000 -
b1000 H"
b1000 V"
b1000 +
b1000 L"
b1000 N"
1$
#70
0$
#80
b1 5
b1 w
b1 ~
b1 6"
b1 l
b1000 9
b1000 s
b1000 z
b1000 *"
b10010011 8
b10010011 t
b10010011 {
b10010011 &"
b100000011010 [
b11011 Q
b11011 B
b11011 e
b11011 Q"
b1000111100010011 .
b1000111100010011 ="
b1000111100010011 A"
b1000111100010011 J"
b1000111100010011 '
b1000111100010011 ,
b1000111100010011 K"
b1000111100010011 W"
b10010011 0
b10010011 n
b10010011 <"
b10010011 C"
b1000 1
b1000 o
b1000 >"
b1000 G"
b110110010011 >
b110110010011 \
b110110010011 $"
b110110010011 )"
b1000 b
b100000011110 a
b100 ?
b100 ]
b100 %"
b100 -"
b11011 ;
b11011 P
b11011 !"
b11011 9"
b1100 /
b1100 ?"
b1100 E"
b1100 I"
b1100 (
b1100 -
b1100 H"
b1100 V"
b1100 +
b1100 L"
b1100 N"
1$
#90
0$
#100
b11110 5
b11110 w
b11110 ~
b11110 6"
b1 3
b1 x
b1 O"
b1 B
b1 e
b1 Q"
b100000000000 [
b1 Q
b1 k
b11110 l
b1100 9
b1100 s
b1100 z
b1100 *"
b1000111100010011 8
b1000111100010011 t
b1000111100010011 {
b1000111100010011 &"
b111010010011 .
b111010010011 ="
b111010010011 A"
b111010010011 J"
b111010010011 '
b111010010011 ,
b111010010011 K"
b111010010011 W"
b1 ;
b1 P
b1 !"
b1 9"
b1100 b
b100000001000 a
b1000 ?
b1000 ]
b1000 %"
b1000 -"
b10010011 >
b10010011 \
b10010011 $"
b10010011 )"
b1100 1
b1100 o
b1100 >"
b1100 G"
b1000111100010011 0
b1000111100010011 n
b1000111100010011 <"
b1000111100010011 C"
b10000 /
b10000 ?"
b10000 E"
b10000 I"
b10000 (
b10000 -
b10000 H"
b10000 V"
b10000 +
b10000 L"
b10000 N"
1$
#110
0$
#120
b11101 5
b11101 w
b11101 ~
b11101 6"
b0 3
b0 x
b0 O"
b0 k
b11101 l
b10000 9
b10000 s
b10000 z
b10000 *"
b111010010011 8
b111010010011 t
b111010010011 {
b111010010011 &"
b11110 [
b1 O
b11110 Q
b11110 B
b11110 e
b11110 Q"
b1000000000000110010011 .
b1000000000000110010011 ="
b1000000000000110010011 A"
b1000000000000110010011 J"
b1000000000000110010011 '
b1000000000000110010011 ,
b1000000000000110010011 K"
b1000000000000110010011 W"
b111010010011 0
b111010010011 n
b111010010011 <"
b111010010011 C"
b10000 1
b10000 o
b10000 >"
b10000 G"
b1000111100010011 >
b1000111100010011 \
b1000111100010011 $"
b1000111100010011 )"
b10000 b
b101010 a
b1100 ?
b1100 ]
b1100 %"
b1100 -"
b11110 ;
b11110 P
b11110 !"
b11110 9"
b10100 /
b10100 ?"
b10100 E"
b10100 I"
b10100 (
b10100 -
b10100 H"
b10100 V"
b10100 +
b10100 L"
b10100 N"
1$
#130
0$
#140
b11 5
b11 w
b11 ~
b11 6"
b10 6
b10 v
b10 }
b10 2"
b11101 B
b11101 e
b11101 Q"
b100000011100 [
b0 O
b11101 Q
b10 g
b10 i
b10 p
b11 l
b10100 9
b10100 s
b10100 z
b10100 *"
b1000000000000110010011 8
b1000000000000110010011 t
b1000000000000110010011 {
b1000000000000110010011 &"
b100111110111110001110001100011 .
b100111110111110001110001100011 ="
b100111110111110001110001100011 A"
b100111110111110001110001100011 J"
b100111110111110001110001100011 '
b100111110111110001110001100011 ,
b100111110111110001110001100011 K"
b100111110111110001110001100011 W"
b11101 ;
b11101 P
b11101 !"
b11101 9"
b10100 b
b100000101100 a
b10000 ?
b10000 ]
b10000 %"
b10000 -"
b111010010011 >
b111010010011 \
b111010010011 $"
b111010010011 )"
b10100 1
b10100 o
b10100 >"
b10100 G"
b1000000000000110010011 0
b1000000000000110010011 n
b1000000000000110010011 <"
b1000000000000110010011 C"
b11000 /
b11000 ?"
b11000 E"
b11000 I"
b11000 (
b11000 -
b11000 H"
b11000 V"
b11000 +
b11000 L"
b11000 N"
1$
#150
0$
#160
04
b0 5
b0 w
b0 ~
b0 6"
b0 6
b0 v
b0 }
b0 2"
b11101 2
b11101 y
b11101 P"
b11110 3
b11110 x
b11110 O"
b11101 g
b11101 i
b10011 q
b1001111101 p
b11110 k
b1 r
b11000 l
b1100011 m
b11000 9
b11000 s
b11000 z
b11000 *"
b100111110111110001110001100011 8
b100111110111110001110001100011 t
b100111110111110001110001100011 {
b100111110111110001110001100011 &"
b100000000010 [
b10 N
b10 ^
b11 Q
b111111111111111111111111111111 c
1W
1V
0X
b10 L
b10 M
b11 B
b11 e
b11 Q"
b10 A
b10 f
b10 R"
b100000000000010010011 .
b100000000000010010011 ="
b100000000000010010011 A"
b100000000000010010011 J"
b100000000000010010011 '
b100000000000010010011 ,
b100000000000010010011 K"
b100000000000010010011 W"
b100111110111110001110001100011 0
b100111110111110001110001100011 n
b100111110111110001110001100011 <"
b100111110111110001110001100011 C"
b11000 1
b11000 o
b11000 >"
b11000 G"
b1000000000000110010011 >
b1000000000000110010011 \
b1000000000000110010011 $"
b1000000000000110010011 )"
b11000 b
b100000010110 a
b10100 ?
b10100 ]
b10100 %"
b10100 -"
b10 Y
b10 <
b10 S
b10 ""
b10 5"
b11 ;
b11 P
b11 !"
b11 9"
b11100 /
b11100 ?"
b11100 E"
b11100 I"
b11100 (
b11100 -
b11100 H"
b11100 V"
b11100 +
b11100 L"
b11100 N"
1$
#170
0$
#180
0H
0F
b1010010000 G
b1010010000 J
b1010010000 M"
14
b1 5
b1 w
b1 ~
b1 6"
b1 6
b1 v
b1 }
b1 2"
b0 2
b0 y
b0 P"
b0 3
b0 x
b0 O"
b11111111111111111111111111111111 c
0W
0V
1X
b0 L
b0 M
0C
b1010010000 D
b1010010000 I
b1010010000 d
0@
b0 B
b0 e
b0 Q"
b0 A
b0 f
b0 R"
b1001111000 [
b11101 N
b10011 _
b1001111101 ^
b11110 O
b1 `
b11000 Q
b1100011 R
b1 g
b1 i
b0 q
b1 p
b0 k
b0 r
b1 l
b10011 m
b11100 9
b11100 s
b11100 z
b11100 *"
b100000000000010010011 8
b100000000000010010011 t
b100000000000010010011 {
b100000000000010010011 &"
b100001000111100010011 .
b100001000111100010011 ="
b100001000111100010011 A"
b100001000111100010011 J"
b100001000111100010011 '
b100001000111100010011 ,
b100001000111100010011 K"
b100001000111100010011 W"
0:
b0 ;
b0 P
b0 !"
b0 9"
b0 Y
b0 <
b0 S
b0 ""
b0 5"
b11100 b
b1010010000 a
b11000 ?
b11000 ]
b11000 %"
b11000 -"
b100111110111110001110001100011 >
b100111110111110001110001100011 \
b100111110111110001110001100011 $"
b100111110111110001110001100011 )"
b10 #
b11100 1
b11100 o
b11100 >"
b11100 G"
b100000000000010010011 0
b100000000000010010011 n
b100000000000010010011 <"
b100000000000010010011 C"
b100000 /
b100000 ?"
b100000 E"
b100000 I"
b100000 (
b100000 -
b100000 H"
b100000 V"
b100000 +
b100000 L"
b100000 N"
1$
#190
0$
#200
b1 7
b1 u
b1 |
b1 ."
b1 *
b1 j
b1 S"
b11110 5
b11110 w
b11110 ~
b11110 6"
b1 3
b1 x
b1 O"
1@
b1 B
b1 e
b1 Q"
b1 A
b1 f
b1 R"
b0 G
b0 J
b0 M"
b1 k
b11110 l
b100000 9
b100000 s
b100000 z
b100000 *"
b100001000111100010011 8
b100001000111100010011 t
b100001000111100010011 {
b100001000111100010011 &"
b100000000000 [
b1 N
b0 _
b1 ^
b0 O
b0 `
b1 Q
b10011 R
b1111111111111111111111111111111 c
1W
1V
0X
b1 L
b1 M
b0 D
b0 I
b0 d
b1000000000111010010011 .
b1000000000111010010011 ="
b1000000000111010010011 A"
b1000000000111010010011 J"
b1000000000111010010011 '
b1000000000111010010011 ,
b1000000000111010010011 K"
b1000000000111010010011 W"
b100001000111100010011 0
b100001000111100010011 n
b100001000111100010011 <"
b100001000111100010011 C"
b100000 1
b100000 o
b100000 >"
b100000 G"
b100000000000010010011 >
b100000000000010010011 \
b100000000000010010011 $"
b100000000000010010011 )"
b100000 b
b100000011100 a
b11100 ?
b11100 ]
b11100 %"
b11100 -"
b1 Y
b1 <
b1 S
b1 ""
b1 5"
b1 ;
b1 P
b1 !"
b1 9"
1:
b100100 /
b100100 ?"
b100100 E"
b100100 I"
b100100 (
b100100 -
b100100 H"
b100100 V"
b100100 +
b100100 L"
b100100 N"
1$
#210
0$
#220
b0 7
b0 u
b0 |
b0 ."
b0 *
b0 j
b0 S"
b11101 5
b11101 w
b11101 ~
b11101 6"
b10 6
b10 v
b10 }
b10 2"
b0 3
b0 x
b0 O"
0W
0V
1X
b0 M
b1 K
b11110 B
b11110 e
b11110 Q"
b10 A
b10 f
b10 R"
b11110 [
b1 O
b11110 Q
b10 g
b10 i
b10 p
b0 k
b11101 l
b100100 9
b100100 s
b100100 z
b100100 *"
b1000000000111010010011 8
b1000000000111010010011 t
b1000000000111010010011 {
b1000000000111010010011 &"
b1100000000000110010011 .
b1100000000000110010011 ="
b1100000000000110010011 A"
b1100000000000110010011 J"
b1100000000000110010011 '
b1100000000000110010011 ,
b1100000000000110010011 K"
b1100000000000110010011 W"
b11110 ;
b11110 P
b11110 !"
b11110 9"
b10 U
b10 Y
b1 =
b1 Z
b1 #"
b1 1"
b100100 b
b111110 a
b100000 ?
b100000 ]
b100000 %"
b100000 -"
b100001000111100010011 >
b100001000111100010011 \
b100001000111100010011 $"
b100001000111100010011 )"
b100100 1
b100100 o
b100100 >"
b100100 G"
b1000000000111010010011 0
b1000000000111010010011 n
b1000000000111010010011 <"
b1000000000111010010011 C"
b101000 /
b101000 ?"
b101000 E"
b101000 I"
b101000 (
b101000 -
b101000 H"
b101000 V"
b101000 +
b101000 L"
b101000 N"
1$
#230
0$
#240
b11 5
b11 w
b11 ~
b11 6"
b11 6
b11 v
b11 }
b11 2"
b11 g
b11 i
b11 p
b11 l
b101000 9
b101000 s
b101000 z
b101000 *"
b1100000000000110010011 8
b1100000000000110010011 t
b1100000000000110010011 {
b1100000000000110010011 &"
b100000011100 [
b10 N
b10 ^
b0 O
b11101 Q
b111111111111111111111111111111 c
1W
1V
0X
b10 L
b10 M
b0 K
b11101 B
b11101 e
b11101 Q"
b100111110111110001001001100011 .
b100111110111110001001001100011 ="
b100111110111110001001001100011 A"
b100111110111110001001001100011 J"
b100111110111110001001001100011 '
b100111110111110001001001100011 ,
b100111110111110001001001100011 K"
b100111110111110001001001100011 W"
b1100000000000110010011 0
b1100000000000110010011 n
b1100000000000110010011 <"
b1100000000000110010011 C"
b101000 1
b101000 o
b101000 >"
b101000 G"
b1000000000111010010011 >
b1000000000111010010011 \
b1000000000111010010011 $"
b1000000000111010010011 )"
b101000 b
b100001000000 a
b100100 ?
b100100 ]
b100100 %"
b100100 -"
b0 =
b0 Z
b0 #"
b0 1"
b0 U
b10 Y
b10 <
b10 S
b10 ""
b10 5"
b11101 ;
b11101 P
b11101 !"
b11101 9"
b101100 /
b101100 ?"
b101100 E"
b101100 I"
b101100 (
b101100 -
b101100 H"
b101100 V"
b101100 +
b101100 L"
b101100 N"
1$
#250
0$
#260
b10 7
b10 u
b10 |
b10 ."
b10 )
b10 h
b10 T"
b10 *
b10 j
b10 S"
04
b0 5
b0 w
b0 ~
b0 6"
b10 6
b10 v
b10 }
b10 2"
b11101 2
b11101 y
b11101 P"
b11110 3
b11110 x
b11110 O"
b11111111111111111111111111111 c
b11 L
b11 M
b11 B
b11 e
b11 Q"
b11 A
b11 f
b11 R"
b100000000010 [
b11 N
b11 ^
b11 Q
b11101 g
b11101 i
b10011 q
b1001111101 p
b11110 k
b1 r
b100 l
b1100011 m
b101100 9
b101100 s
b101100 z
b101100 *"
b100111110111110001001001100011 8
b100111110111110001001001100011 t
b100111110111110001001001100011 {
b100111110111110001001001100011 &"
b1100000000000010010011 .
b1100000000000010010011 ="
b1100000000000010010011 A"
b1100000000000010010011 J"
b1100000000000010010011 '
b1100000000000010010011 ,
b1100000000000010010011 K"
b1100000000000010010011 W"
b11 ;
b11 P
b11 !"
b11 9"
b11 Y
b11 <
b11 S
b11 ""
b11 5"
b101100 b
b100000101010 a
b101000 ?
b101000 ]
b101000 %"
b101000 -"
b1100000000000110010011 >
b1100000000000110010011 \
b1100000000000110010011 $"
b1100000000000110010011 )"
b101100 1
b101100 o
b101100 >"
b101100 G"
b100111110111110001001001100011 0
b100111110111110001001001100011 n
b100111110111110001001001100011 <"
b100111110111110001001001100011 C"
b110000 /
b110000 ?"
b110000 E"
b110000 I"
b110000 (
b110000 -
b110000 H"
b110000 V"
b110000 +
b110000 L"
b110000 N"
1$
#270
0$
#280
b0 7
b0 u
b0 |
b0 ."
b1010010000 G
b1010010000 J
b1010010000 M"
b0 )
b0 h
b0 T"
b0 *
b0 j
b0 S"
14
b1 5
b1 w
b1 ~
b1 6"
b11 6
b11 v
b11 }
b11 2"
b0 2
b0 y
b0 P"
b0 3
b0 x
b0 O"
b1010010000 D
b1010010000 I
b1010010000 d
0@
b11 g
b11 i
b0 q
b11 p
b0 k
b0 r
b1 l
b10011 m
b110000 9
b110000 s
b110000 z
b110000 *"
b1100000000000010010011 8
b1100000000000010010011 t
b1100000000000010010011 {
b1100000000000010010011 &"
b1001100100 [
b11101 N
b10011 _
b1001111101 ^
b11110 O
b1 `
b100 Q
b1100011 R
0W
0V
1X
b111111111111111111111111111111 c
b10 L
b0 M
b10 K
b0 B
b0 e
b0 Q"
b0 A
b0 f
b0 R"
b11100001000111100010011 .
b11100001000111100010011 ="
b11100001000111100010011 A"
b11100001000111100010011 J"
b11100001000111100010011 '
b11100001000111100010011 ,
b11100001000111100010011 K"
b11100001000111100010011 W"
b1100000000000010010011 0
b1100000000000010010011 n
b1100000000000010010011 <"
b1100000000000010010011 C"
b110000 1
b110000 o
b110000 >"
b110000 G"
b11 #
b100111110111110001001001100011 >
b100111110111110001001001100011 \
b100111110111110001001001100011 $"
b100111110111110001001001100011 )"
b110000 b
b1010010000 a
b101100 ?
b101100 ]
b101100 %"
b101100 -"
b1000 U
b10 =
b10 Z
b10 #"
b10 1"
b100 Y
b10 <
b10 S
b10 ""
b10 5"
b0 ;
b0 P
b0 !"
b0 9"
0:
b110100 /
b110100 ?"
b110100 E"
b110100 I"
b110100 (
b110100 -
b110100 H"
b110100 V"
b110100 +
b110100 L"
b110100 N"
1$
#290
0$
#300
b11 7
b11 u
b11 |
b11 ."
b11 *
b11 j
b11 S"
b0 G
b0 J
b0 M"
b11110 5
b11110 w
b11110 ~
b11110 6"
b111 6
b111 v
b111 }
b111 2"
b1 3
b1 x
b1 O"
b11111111111111111111111111111 c
1W
1V
0X
b11 L
b11 M
b0 K
1@
b1 B
b1 e
b1 Q"
b11 A
b11 f
b11 R"
b0 D
b0 I
b0 d
b100000000000 [
b11 N
b0 _
b11 ^
b0 O
b0 `
b1 Q
b10011 R
b111 g
b111 i
b111 p
b1 k
b11110 l
b110100 9
b110100 s
b110100 z
b110100 *"
b11100001000111100010011 8
b11100001000111100010011 t
b11100001000111100010011 {
b11100001000111100010011 &"
b101000000000111010010011 .
b101000000000111010010011 ="
b101000000000111010010011 A"
b101000000000111010010011 J"
b101000000000111010010011 '
b101000000000111010010011 ,
b101000000000111010010011 K"
b101000000000111010010011 W"
1:
b1 ;
b1 P
b1 !"
b1 9"
b11 <
b11 S
b11 ""
b11 5"
b0 U
b11 Y
b0 =
b0 Z
b0 #"
b0 1"
b110100 b
b100000110000 a
b110000 ?
b110000 ]
b110000 %"
b110000 -"
b1100000000000010010011 >
b1100000000000010010011 \
b1100000000000010010011 $"
b1100000000000010010011 )"
b110100 1
b110100 o
b110100 >"
b110100 G"
b11100001000111100010011 0
b11100001000111100010011 n
b11100001000111100010011 <"
b11100001000111100010011 C"
b111000 /
b111000 ?"
b111000 E"
b111000 I"
b111000 (
b111000 -
b111000 H"
b111000 V"
b111000 +
b111000 L"
b111000 N"
1$
#310
0$
#320
b0 7
b0 u
b0 |
b0 ."
b0 *
b0 j
b0 S"
b11101 5
b11101 w
b11101 ~
b11101 6"
b1010 6
b1010 v
b1010 }
b1010 2"
b0 3
b0 x
b0 O"
b1010 g
b1010 i
b1010 p
b0 k
b11101 l
b111000 9
b111000 s
b111000 z
b111000 *"
b101000000000111010010011 8
b101000000000111010010011 t
b101000000000111010010011 {
b101000000000111010010011 &"
b11110 [
b111 N
b111 ^
b1 O
b11110 Q
b1111111111111111111111111 c
b111 L
b100 M
b11 K
b11110 B
b11110 e
b11110 Q"
b1010 A
b1010 f
b1010 R"
b10000000000000110010011 .
b10000000000000110010011 ="
b10000000000000110010011 A"
b10000000000000110010011 J"
b10000000000000110010011 '
b10000000000000110010011 ,
b10000000000000110010011 K"
b10000000000000110010011 W"
b101000000000111010010011 0
b101000000000111010010011 n
b101000000000111010010011 <"
b101000000000111010010011 C"
b111000 1
b111000 o
b111000 >"
b111000 G"
b11100001000111100010011 >
b11100001000111100010011 \
b11100001000111100010011 $"
b11100001000111100010011 )"
b111000 b
b1010010 a
b110100 ?
b110100 ]
b110100 %"
b110100 -"
b110000000 U
b11 =
b11 Z
b11 #"
b11 1"
b1010 Y
b111 <
b111 S
b111 ""
b111 5"
b11110 ;
b11110 P
b11110 !"
b11110 9"
b111100 /
b111100 ?"
b111100 E"
b111100 I"
b111100 (
b111100 -
b111100 H"
b111100 V"
b111100 +
b111100 L"
b111100 N"
1$
#330
0$
