sim/tb.vcd
$date
	Thu Aug 25 12:15:33 2022
$end
$version
	Icarus Verilog
$end
$timescale
	1ns
$end
$scope module tb $end
$var wire 32 ! x26 [31:0] $end
$var wire 32 " x27 [31:0] $end
$var wire 32 # x3 [31:0] $end
$var reg 1 $ clk $end
$var reg 1 % rst_n $end
$var integer 32 & r [31:0] $end
$scope module open_risc_v_soc1 $end
$var wire 1 $ clk $end
$var wire 1 % rst_n $end
$var wire 32 ' rom_inst_o [31:0] $end
$var wire 32 ( risc_v_top_inst_addr_o [31:0] $end
$scope module open_risc_v1 $end
$var wire 1 $ clk $end
$var wire 1 % rst_n $end
$var wire 32 ) regs_reg2_rdata_o [31:0] $end
$var wire 32 * regs_reg1_rdata_o [31:0] $end
$var wire 32 + pc_reg_pc_o [31:0] $end
$var wire 32 , inst_i [31:0] $end
$var wire 32 - inst_addr_o [31:0] $end
$var wire 32 . if_inst_o [31:0] $end
$var wire 32 / if_inst_addr_o [31:0] $end
$var wire 32 0 if_id_inst_o [31:0] $end
$var wire 32 1 if_id_inst_addr_o [31:0] $end
$var wire 5 2 id_rs2_addr_o [4:0] $end
$var wire 5 3 id_rs1_addr_o [4:0] $end
$var wire 1 4 id_reg_wen $end
$var wire 5 5 id_rd_addr_o [4:0] $end
$var wire 32 6 id_op2_o [31:0] $end
$var wire 32 7 id_op1_o [31:0] $end
$var wire 32 8 id_inst_o [31:0] $end
$var wire 32 9 id_inst_addr_o [31:0] $end
$var wire 1 : id_ex_reg_wen_o $end
$var wire 5 ; id_ex_rd_addr_o [4:0] $end
$var wire 32 < id_ex_op2_o [31:0] $end
$var wire 32 = id_ex_op1_o [31:0] $end
$var wire 32 > id_ex_inst_o [31:0] $end
$var wire 32 ? id_ex_inst_addr_o [31:0] $end
$var wire 1 @ ex_rd_wen_o $end
$var wire 32 A ex_rd_data_o [31:0] $end
$var wire 5 B ex_rd_addr_o [4:0] $end
$var wire 1 C ex_jump_en_o $end
$var wire 32 D ex_jump_addr_o [31:0] $end
$var wire 1 E ex_hold_flag_o $end
$var wire 1 F ctrl_jump_en_o $end
$var wire 32 G ctrl_jump_addr_o [31:0] $end
$var wire 1 H ctrl_hold_flag_o $end
$scope module ctrl1 $end
$var wire 1 C jump_en_i $end
$var wire 32 I jump_addr_i [31:0] $end
$var wire 1 E hold_flag_ex_i $end
$var reg 1 H hold_flag_o $end
$var reg 32 J jump_addr_o [31:0] $end
$var reg 1 F jump_en_o $end
$upscope $end
$scope module ex1 $end
$var wire 32 K op1_i_and_op2_i [31:0] $end
$var wire 32 L op1_i_or_op2_i [31:0] $end
$var wire 32 M op1_i_xor_op2_i [31:0] $end
$var wire 5 N rs2 [4:0] $end
$var wire 5 O rs1 [4:0] $end
$var wire 1 : rd_wen_i $end
$var wire 5 P rd_addr_i [4:0] $end
$var wire 5 Q rd [4:0] $end
$var wire 7 R opcode [6:0] $end
$var wire 32 S op2_i [31:0] $end
$var wire 32 T op1_i_srl_op2_i [31:0] $end
$var wire 32 U op1_i_sll_op2_i [31:0] $end
$var wire 1 V op1_i_ltu_op2_i $end
$var wire 1 W op1_i_lt_op2_i $end
$var wire 1 X op1_i_equal_op2_i $end
$var wire 32 Y op1_i_add_op2_i [31:0] $end
$var wire 32 Z op1_i [31:0] $end
$var wire 32 [ jump_imm [31:0] $end
$var wire 32 \ inst_i [31:0] $end
$var wire 32 ] inst_addr_i [31:0] $end
$var wire 12 ^ imm [11:0] $end
$var wire 7 _ funct7 [6:0] $end
$var wire 3 ` funct3 [2:0] $end
$var wire 32 a base_addr_add_addr_offset [31:0] $end
$var wire 32 b base_addr_add_4 [31:0] $end
$var wire 32 c SRA_mask [31:0] $end
$var reg 1 E hold_flag_o $end
$var reg 32 d jump_addr_o [31:0] $end
$var reg 1 C jump_en_o $end
$var reg 5 e rd_addr_o [4:0] $end
$var reg 32 f rd_data_o [31:0] $end
$var reg 1 @ rd_wen_o $end
$upscope $end
$scope module id1 $end
$var wire 5 g shamt [4:0] $end
$var wire 32 h rs2_data_i [31:0] $end
$var wire 5 i rs2 [4:0] $end
$var wire 32 j rs1_data_i [31:0] $end
$var wire 5 k rs1 [4:0] $end
$var wire 5 l rd [4:0] $end
$var wire 7 m opcode [6:0] $end
$var wire 32 n inst_i [31:0] $end
$var wire 32 o inst_addr_i [31:0] $end
$var wire 12 p imm [11:0] $end
$var wire 7 q funct7 [6:0] $end
$var wire 3 r funct3 [2:0] $end
$var reg 32 s inst_addr_o [31:0] $end
$var reg 32 t inst_o [31:0] $end
$var reg 32 u op1_o [31:0] $end
$var reg 32 v op2_o [31:0] $end
$var reg 5 w rd_addr_o [4:0] $end
$var reg 1 4 reg_wen $end
$var reg 5 x rs1_addr_o [4:0] $end
$var reg 5 y rs2_addr_o [4:0] $end
$upscope $end
$scope module id_ex1 $end
$var wire 1 $ clk $end
$var wire 1 H hold_flag_i $end
$var wire 32 z inst_addr_i [31:0] $end
$var wire 32 { inst_i [31:0] $end
$var wire 32 | op1_i [31:0] $end
$var wire 32 } op2_i [31:0] $end
$var wire 5 ~ rd_addr_i [4:0] $end
$var wire 1 4 reg_wen_i $end
$var wire 1 % rst_n $end
$var wire 1 : reg_wen_o $end
$var wire 5 !" rd_addr_o [4:0] $end
$var wire 32 "" op2_o [31:0] $end
$var wire 32 #" op1_o [31:0] $end
$var wire 32 $" inst_o [31:0] $end
$var wire 32 %" inst_addr_o [31:0] $end
$scope module dff1 $end
$var wire 1 $ clk $end
$var wire 32 &" data_i [31:0] $end
$var wire 1 H hold_flag_i $end
$var wire 1 % rst_n $end
$var wire 32 '" set_data [31:0] $end
$var parameter 32 (" DW $end
$var reg 32 )" data_o [31:0] $end
$upscope $end
$scope module dff2 $end
$var wire 1 $ clk $end
$var wire 32 *" data_i [31:0] $end
$var wire 1 H hold_flag_i $end
$var wire 1 % rst_n $end
$var wire 32 +" set_data [31:0] $end
$var parameter 32 ," DW $end
$var reg 32 -" data_o [31:0] $end
$upscope $end
$scope module dff3 $end
$var wire 1 $ clk $end
$var wire 32 ." data_i [31:0] $end
$var wire 1 H hold_flag_i $end
$var wire 1 % rst_n $end
$var wire 32 /" set_data [31:0] $end
$var parameter 32 0" DW $end
$var reg 32 1" data_o [31:0] $end
$upscope $end
$scope module dff4 $end
$var wire 1 $ clk $end
$var wire 32 2" data_i [31:0] $end
$var wire 1 H hold_flag_i $end
$var wire 1 % rst_n $end
$var wire 32 3" set_data [31:0] $end
$var parameter 32 4" DW $end
$var reg 32 5" data_o [31:0] $end
$upscope $end
$scope module dff5 $end
$var wire 1 $ clk $end
$var wire 5 6" data_i [4:0] $end
$var wire 1 H hold_flag_i $end
$var wire 1 % rst_n $end
$var wire 5 7" set_data [4:0] $end
$var parameter 32 8" DW $end
$var reg 5 9" data_o [4:0] $end
$upscope $end
$scope module dff6 $end
$var wire 1 $ clk $end
$var wire 1 4 data_i $end
$var wire 1 H hold_flag_i $end
$var wire 1 % rst_n $end
$var wire 1 :" set_data $end
$var parameter 32 ;" DW $end
$var reg 1 : data_o $end
$upscope $end
$upscope $end
$scope module if_id1 $end
$var wire 1 $ clk $end
$var wire 1 H hold_flag_i $end
$var wire 1 % rst_n $end
$var wire 32 <" inst_o [31:0] $end
$var wire 32 =" inst_i [31:0] $end
$var wire 32 >" inst_addr_o [31:0] $end
$var wire 32 ?" inst_addr_i [31:0] $end
$scope module dff1 $end
$var wire 1 $ clk $end
$var wire 1 H hold_flag_i $end
$var wire 1 % rst_n $end
$var wire 32 @" set_data [31:0] $end
$var wire 32 A" data_i [31:0] $end
$var parameter 32 B" DW $end
$var reg 32 C" data_o [31:0] $end
$upscope $end
$scope module dff2 $end
$var wire 1 $ clk $end
$var wire 1 H hold_flag_i $end
$var wire 1 % rst_n $end
$var wire 32 D" set_data [31:0] $end
$var wire 32 E" data_i [31:0] $end
$var parameter 32 F" DW $end
$var reg 32 G" data_o [31:0] $end
$upscope $end
$upscope $end
$scope module ifetch1 $end
$var wire 32 H" if2rom_addr_o [31:0] $end
$var wire 32 I" inst_addr_o [31:0] $end
$var wire 32 J" inst_o [31:0] $end
$var wire 32 K" rom_inst_i [31:0] $end
$var wire 32 L" pc_addr_i [31:0] $end
$upscope $end
$scope module pc_reg1 $end
$var wire 1 $ clk $end
$var wire 32 M" jump_addr_i [31:0] $end
$var wire 1 F jump_en_i $end
$var wire 1 % rst_n $end
$var reg 32 N" pc_o [31:0] $end
$upscope $end
$scope module regs1 $end
$var wire 1 $ clk $end
$var wire 5 O" reg1_raddr_i [4:0] $end
$var wire 5 P" reg2_raddr_i [4:0] $end
$var wire 5 Q" reg_waddr_i [4:0] $end
$var wire 32 R" reg_wdata_i [31:0] $end
$var wire 1 @ reg_wen $end
$var wire 1 % rst_n $end
$var reg 32 S" reg1_rdata_o [31:0] $end
$var reg 32 T" reg2_rdata_o [31:0] $end
$var integer 32 U" i [31:0] $end
$upscope $end
$upscope $end
$scope module rom1 $end
$var wire 32 V" inst_addr_i [31:0] $end
$var reg 32 W" inst_o [31:0] $end
$upscope $end
$upscope $end
$upscope $end
$enddefinitions $end
$comment Show the parameter values. $end
$dumpall
b100000 F"
b100000 B"
b1 ;"
b101 8"
b100000 4"
b100000 0"
b100000 ,"
b100000 ("
$end
#0
$dumpvars
b110100010011 W"
b0 V"
b100000 U"
b0 T"
b0 S"
b0 R"
b0 Q"
b0 P"
b0 O"
b0 N"
b0 M"
b0 L"
b110100010011 K"
b110100010011 J"
b0 I"
b0 H"
b0 G"
b0 E"
b0 D"
b10011 C"
b110100010011 A"
b10011 @"
b0 ?"
b0 >"
b110100010011 ="
b10011 <"
0:"
b0 9"
b0 7"
b0 6"
b0 5"
b0 3"
b0 2"
b0 1"
b0 /"
b0 ."
b0 -"
b0 +"
b0 *"
b10011 )"
b10011 '"
b10011 &"
b0 %"
b10011 $"
b0 #"
b0 ""
b0 !"
b0 ~
b0 }
b0 |
b10011 {
b0 z
b0 y
b0 x
b0 w
b0 v
b0 u
b10011 t
b0 s
b0 r
b0 q
b0 p
b0 o
b10011 n
b10011 m
b0 l
b0 k
b0 j
b0 i
b0 h
b0 g
b0 f
b0 e
b0 d
b11111111111111111111111111111111 c
b100 b
b0 a
b0 `
b0 _
b0 ^
b0 ]
b10011 \
b0 [
b0 Z
b0 Y
1X
0W
0V
b0 U
b0 T
b0 S
b10011 R
b0 Q
b0 P
b0 O
b0 N
b0 M
b0 L
b0 K
b0 J
b0 I
0H
b0 G
0F
0E
b0 D
0C
b0 B
b0 A
1@
b0 ?
b10011 >
b0 =
b0 <
b0 ;
0:
b0 9
b10011 8
b0 7
b0 6
b0 5
14
b0 3
b0 2
b0 1
b10011 0
b0 /
b110100010011 .
b0 -
b110100010011 ,
b0 +
b0 *
b0 )
b0 (
b110100010011 '
bx &
0%
1$
b0 #
b0 "
b0 !
$end
#10
0$
#20
b100000 U"
1$
#30
1%
0$
#40
b11010 5
b11010 w
b11010 ~
b11010 6"
b11010 l
b110100010011 8
b110100010011 t
b110100010011 {
b110100010011 &"
b110110010011 .
b110110010011 ="
b110110010011 A"
b110110010011 J"
b110110010011 '
b110110010011 ,
b110110010011 K"
b110110010011 W"
b110100010011 0
b110100010011 n
b110100010011 <"
b110100010011 C"
1:
b100 /
b100 ?"
b100 E"
b100 I"
b100 (
b100 -
b100 H"
b100 V"
b100 +
b100 L"
b100 N"
1$
#50
0$
#60
b11011 5
b11011 w
b11011 ~
b11011 6"
b11010 B
b11010 e
b11010 Q"
b11010 a
b11010 [
b11010 Q
b11011 l
b100 9
b100 s
b100 z
b100 *"
b110110010011 8
b110110010011 t
b110110010011 {
b110110010011 &"
b111111110001000010110111 .
b111111110001000010110111 ="
b111111110001000010110111 A"
b111111110001000010110111 J"
b111111110001000010110111 '
b111111110001000010110111 ,
b111111110001000010110111 K"
b111111110001000010110111 W"
b11010 ;
b11010 P
b11010 !"
b11010 9"
b110100010011 >
b110100010011 \
b110100010011 $"
b110100010011 )"
b100 1
b100 o
b100 >"
b100 G"
b110110010011 0
b110110010011 n
b110110010011 <"
b110110010011 C"
b1000 /
b1000 ?"
b1000 E"
b1000 I"
b1000 (
b1000 -
b1000 H"
b1000 V"
b1000 +
b1000 L"
b1000 N"
1$
#70
0$
#80
b1 5
b1 w
b1 ~
b1 6"
b111111110001000000000000 7
b111111110001000000000000 u
b111111110001000000000000 |
b111111110001000000000000 ."
b1111 g
b1111 i
b1111 p
b11110 k
b1 r
b1 l
b110111 m
b1000 9
b1000 s
b1000 z
b1000 *"
b111111110001000010110111 8
b111111110001000010110111 t
b111111110001000010110111 {
b111111110001000010110111 &"
b100000011010 [
b11011 Q
b11011 B
b11011 e
b11011 Q"
b11110000000000001000000010010011 .
b11110000000000001000000010010011 ="
b11110000000000001000000010010011 A"
b11110000000000001000000010010011 J"
b11110000000000001000000010010011 '
b11110000000000001000000010010011 ,
b11110000000000001000000010010011 K"
b11110000000000001000000010010011 W"
b111111110001000010110111 0
b111111110001000010110111 n
b111111110001000010110111 <"
b111111110001000010110111 C"
b1000 1
b1000 o
b1000 >"
b1000 G"
b110110010011 >
b110110010011 \
b110110010011 $"
b110110010011 )"
b1000 b
b100000011110 a
b100 ?
b100 ]
b100 %"
b100 -"
b11011 ;
b11011 P
b11011 !"
b11011 9"
b1100 /
b1100 ?"
b1100 E"
b1100 I"
b1100 (
b1100 -
b1100 H"
b1100 V"
b1100 +
b1100 L"
b1100 N"
1$
#90
0$
#100
b111111110001000000000000 *
b111111110001000000000000 j
b111111110001000000000000 S"
b11111111111111111111111100000000 6
b11111111111111111111111100000000 v
b11111111111111111111111100000000 }
b11111111111111111111111100000000 2"
b1 3
b1 x
b1 O"
0X
b111111110001000000000000 L
b111111110001000000000000 M
b1 B
b1 e
b1 Q"
b111111110001000000000000 A
b111111110001000000000000 f
b111111110001000000000000 R"
b100000000000 [
b1111 N
b1111 ^
b11110 O
b1 `
b1 Q
b110111 R
b0 g
b0 i
b1111000 q
b111100000000 p
b1 k
b0 r
b10011 m
b111111110001000000000000 7
b111111110001000000000000 u
b111111110001000000000000 |
b111111110001000000000000 ."
b1100 9
b1100 s
b1100 z
b1100 *"
b11110000000000001000000010010011 8
b11110000000000001000000010010011 t
b11110000000000001000000010010011 {
b11110000000000001000000010010011 &"
b11110000111100001100111100010011 .
b11110000111100001100111100010011 ="
b11110000111100001100111100010011 A"
b11110000111100001100111100010011 J"
b11110000111100001100111100010011 '
b11110000111100001100111100010011 ,
b11110000111100001100111100010011 K"
b11110000111100001100111100010011 W"
b1 ;
b1 P
b1 !"
b1 9"
b111111110001000000000000 T
b111111110001000000000000 U
b111111110001000000000000 Y
b111111110001000000000000 =
b111111110001000000000000 Z
b111111110001000000000000 #"
b111111110001000000000000 1"
b1100 b
b100000001000 a
b1000 ?
b1000 ]
b1000 %"
b1000 -"
b111111110001000010110111 >
b111111110001000010110111 \
b111111110001000010110111 $"
b111111110001000010110111 )"
b1100 1
b1100 o
b1100 >"
b1100 G"
b11110000000000001000000010010011 0
b11110000000000001000000010010011 n
b11110000000000001000000010010011 <"
b11110000000000001000000010010011 C"
b10000 /
b10000 ?"
b10000 E"
b10000 I"
b10000 (
b10000 -
b10000 H"
b10000 V"
b10000 +
b10000 L"
b10000 N"
1$
#110
0$
#120
b111111110000111100000000 7
b111111110000111100000000 u
b111111110000111100000000 |
b111111110000111100000000 ."
b111111110000111100000000 *
b111111110000111100000000 j
b111111110000111100000000 S"
b11110 5
b11110 w
b11110 ~
b11110 6"
b11111111111111111111111100001111 6
b11111111111111111111111100001111 v
b11111111111111111111111100001111 }
b11111111111111111111111100001111 2"
b111111110000111100000000 A
b111111110000111100000000 f
b111111110000111100000000 R"
b1111 g
b1111 i
b111100001111 p
b100 r
b11110 l
b10000 9
b10000 s
b10000 z
b10000 *"
b11110000111100001100111100010011 8
b11110000111100001100111100010011 t
b11110000111100001100111100010011 {
b11110000111100001100111100010011 &"
b11111111111111111111111100000000 [
b0 N
b1111000 _
b111100000000 ^
b1 O
b0 `
b10011 R
1V
b11111111111111111111111100000000 L
b11111111000000001110111100000000 M
b111111110001000000000000 K
b11111111000000001111111010110111 .
b11111111000000001111111010110111 ="
b11111111000000001111111010110111 A"
b11111111000000001111111010110111 J"
b11111111000000001111111010110111 '
b11111111000000001111111010110111 ,
b11111111000000001111111010110111 K"
b11111111000000001111111010110111 W"
b11110000111100001100111100010011 0
b11110000111100001100111100010011 n
b11110000111100001100111100010011 <"
b11110000111100001100111100010011 C"
b10000 1
b10000 o
b10000 >"
b10000 G"
b11110000000000001000000010010011 >
b11110000000000001000000010010011 \
b11110000000000001000000010010011 $"
b11110000000000001000000010010011 )"
b10000 b
b11111111111111111111111100001100 a
b1100 ?
b1100 ]
b1100 %"
b1100 -"
b0 T
b0 U
b111111110000111100000000 Y
b11111111111111111111111100000000 <
b11111111111111111111111100000000 S
b11111111111111111111111100000000 ""
b11111111111111111111111100000000 5"
b10100 /
b10100 ?"
b10100 E"
b10100 I"
b10100 (
b10100 -
b10100 H"
b10100 V"
b10100 +
b10100 L"
b10100 N"
1$
#130
0$
#140
b0 *
b0 j
b0 S"
b11101 5
b11101 w
b11101 ~
b11101 6"
b0 6
b0 v
b0 }
b0 2"
b11111111000000001111000000000000 7
b11111111000000001111000000000000 u
b11111111000000001111000000000000 |
b11111111000000001111000000000000 ."
b0 3
b0 x
b0 O"
b11111111111111111 c
b11111111111111111111111100001111 L
b11111111000000001111000000001111 M
b111111110000111100000000 K
b11110 B
b11110 e
b11110 Q"
b11111111000000001111000000001111 A
b11111111000000001111000000001111 f
b11111111000000001111000000001111 R"
b11111111111111111111011100011110 [
b1111 N
b111100001111 ^
b100 `
b11110 Q
b10000 g
b10000 i
b1111111 q
b111111110000 p
b111 r
b11101 l
b110111 m
b10100 9
b10100 s
b10100 z
b10100 *"
b11111111000000001111111010110111 8
b11111111000000001111111010110111 t
b11111111000000001111111010110111 {
b11111111000000001111111010110111 &"
b111111101000111010010011 .
b111111101000111010010011 ="
b111111101000111010010011 A"
b111111101000111010010011 J"
b111111101000111010010011 '
b111111101000111010010011 ,
b111111101000111010010011 K"
b111111101000111010010011 W"
b11110 ;
b11110 P
b11110 !"
b11110 9"
b11111111111111111111111100001111 <
b11111111111111111111111100001111 S
b11111111111111111111111100001111 ""
b11111111111111111111111100001111 5"
b111111110000111000001111 Y
b111111110000111100000000 =
b111111110000111100000000 Z
b111111110000111100000000 #"
b111111110000111100000000 1"
b10100 b
b11111111111111111111011100101110 a
b10000 ?
b10000 ]
b10000 %"
b10000 -"
b11110000111100001100111100010011 >
b11110000111100001100111100010011 \
b11110000111100001100111100010011 $"
b11110000111100001100111100010011 )"
b10100 1
b10100 o
b10100 >"
b10100 G"
b11111111000000001111111010110111 0
b11111111000000001111111010110111 n
b11111111000000001111111010110111 <"
b11111111000000001111111010110111 C"
b11000 /
b11000 ?"
b11000 E"
b11000 I"
b11000 (
b11000 -
b11000 H"
b11000 V"
b11000 +
b11000 L"
b11000 N"
1$
#150
0$
#160
b11111111000000001111000000000000 *
b11111111000000001111000000000000 j
b11111111000000001111000000000000 S"
b1111 6
b1111 v
b1111 }
b1111 2"
b11101 3
b11101 x
b11101 O"
b11111111000000001111000000000000 A
b11111111000000001111000000000000 f
b11111111000000001111000000000000 R"
b1111 g
b1111 i
b0 q
b1111 p
b11101 k
b0 r
b10011 m
b11111111000000001111000000000000 7
b11111111000000001111000000000000 u
b11111111000000001111000000000000 |
b11111111000000001111000000000000 ."
b11000 9
b11000 s
b11000 z
b11000 *"
b111111101000111010010011 8
b111111101000111010010011 t
b111111101000111010010011 {
b111111101000111010010011 &"
b11111111111111111111111111111100 [
b10000 N
b1111111 _
b111111110000 ^
b111 `
b11101 Q
b110111 R
1W
b11111111111111111111111111111111 c
0V
b11111111000000001111000000000000 L
b11111111000000001111000000000000 M
b0 K
b11101 B
b11101 e
b11101 Q"
b1000000000000110010011 .
b1000000000000110010011 ="
b1000000000000110010011 A"
b1000000000000110010011 J"
b1000000000000110010011 '
b1000000000000110010011 ,
b1000000000000110010011 K"
b1000000000000110010011 W"
b111111101000111010010011 0
b111111101000111010010011 n
b111111101000111010010011 <"
b111111101000111010010011 C"
b11000 1
b11000 o
b11000 >"
b11000 G"
b11111111000000001111111010110111 >
b11111111000000001111111010110111 \
b11111111000000001111111010110111 $"
b11111111000000001111111010110111 )"
b11000 b
b10000 a
b10100 ?
b10100 ]
b10100 %"
b10100 -"
b11111111000000001111000000000000 =
b11111111000000001111000000000000 Z
b11111111000000001111000000000000 #"
b11111111000000001111000000000000 1"
b11111111000000001111000000000000 T
b11111111000000001111000000000000 U
b11111111000000001111000000000000 Y
b0 <
b0 S
b0 ""
b0 5"
b11101 ;
b11101 P
b11101 !"
b11101 9"
b11100 /
b11100 ?"
b11100 E"
b11100 I"
b11100 (
b11100 -
b11100 H"
b11100 V"
b11100 +
b11100 L"
b11100 N"
1$
#170
0$
#180
b0 7
b0 u
b0 |
b0 ."
b0 *
b0 j
b0 S"
b11 5
b11 w
b11 ~
b11 6"
b10 6
b10 v
b10 }
b10 2"
b0 3
b0 x
b0 O"
b11111111111111111 c
b11111111000000001111000000001111 L
b11111111000000001111000000001111 M
b11111111000000001111000000001111 A
b11111111000000001111000000001111 f
b11111111000000001111000000001111 R"
b100000011100 [
b1111 N
b0 _
b1111 ^
b11101 O
b0 `
b10011 R
b10 g
b10 i
b10 p
b0 k
b11 l
b11100 9
b11100 s
b11100 z
b11100 *"
b1000000000000110010011 8
b1000000000000110010011 t
b1000000000000110010011 {
b1000000000000110010011 &"
b11101110111110001011001100011 .
b11101110111110001011001100011 ="
b11101110111110001011001100011 A"
b11101110111110001011001100011 J"
b11101110111110001011001100011 '
b11101110111110001011001100011 ,
b11101110111110001011001100011 K"
b11101110111110001011001100011 W"
b11111111000000001 T
b1111000000000000000000000000000 U
b11111111000000001111000000001111 Y
b1111 <
b1111 S
b1111 ""
b1111 5"
b11100 b
b100000110100 a
b11000 ?
b11000 ]
b11000 %"
b11000 -"
b111111101000111010010011 >
b111111101000111010010011 \
b111111101000111010010011 $"
b111111101000111010010011 )"
b11100 1
b11100 o
b11100 >"
b11100 G"
b1000000000000110010011 0
b1000000000000110010011 n
b1000000000000110010011 <"
b1000000000000110010011 C"
b100000 /
b100000 ?"
b100000 E"
b100000 I"
b100000 (
b100000 -
b100000 H"
b100000 V"
b100000 +
b100000 L"
b100000 N"
1$
#190
0$
#200
b11111111000000001111000000001111 7
b11111111000000001111000000001111 u
b11111111000000001111000000001111 |
b11111111000000001111000000001111 ."
b11111111000000001111000000001111 )
b11111111000000001111000000001111 h
b11111111000000001111000000001111 T"
b11111111000000001111000000001111 *
b11111111000000001111000000001111 j
b11111111000000001111000000001111 S"
04
b0 5
b0 w
b0 ~
b0 6"
b11111111000000001111000000001111 6
b11111111000000001111000000001111 v
b11111111000000001111000000001111 }
b11111111000000001111000000001111 2"
b11101 2
b11101 y
b11101 P"
b11110 3
b11110 x
b11110 O"
b11101 g
b11101 i
b1110 q
b111011101 p
b11110 k
b1 r
b1100 l
b1100011 m
b100000 9
b100000 s
b100000 z
b100000 *"
b11101110111110001011001100011 8
b11101110111110001011001100011 t
b11101110111110001011001100011 {
b11101110111110001011001100011 &"
b100000000010 [
b10 N
b10 ^
b0 O
b11 Q
1V
b111111111111111111111111111111 c
b10 L
b10 M
b11 B
b11 e
b11 Q"
b10 A
b10 f
b10 R"
b1111111100000001000010110111 .
b1111111100000001000010110111 ="
b1111111100000001000010110111 A"
b1111111100000001000010110111 J"
b1111111100000001000010110111 '
b1111111100000001000010110111 ,
b1111111100000001000010110111 K"
b1111111100000001000010110111 W"
b11101110111110001011001100011 0
b11101110111110001011001100011 n
b11101110111110001011001100011 <"
b11101110111110001011001100011 C"
b100000 1
b100000 o
b100000 >"
b100000 G"
b1000000000000110010011 >
b1000000000000110010011 \
b1000000000000110010011 $"
b1000000000000110010011 )"
b100000 b
b100000011110 a
b11100 ?
b11100 ]
b11100 %"
b11100 -"
b0 =
b0 Z
b0 #"
b0 1"
b0 T
b0 U
b10 Y
b10 <
b10 S
b10 ""
b10 5"
b11 ;
b11 P
b11 !"
b11 9"
b100100 /
b100100 ?"
b100100 E"
b100100 I"
b100100 (
b100100 -
b100100 H"
b100100 V"
b100100 +
b100100 L"
b100100 N"
1$
#210
0$
#220
0H
0F
b111101100 G
b111101100 J
b111101100 M"
b0 )
b0 h
b0 T"
b0 *
b0 j
b0 S"
14
b1 5
b1 w
b1 ~
b1 6"
b0 6
b0 v
b0 }
b0 2"
b1111111100000001000000000000 7
b1111111100000001000000000000 u
b1111111100000001000000000000 |
b1111111100000001000000000000 ."
b0 2
b0 y
b0 P"
b0 3
b0 x
b0 O"
b11111111111111111 c
0W
1X
0V
b11111111000000001111000000001111 L
b0 M
b11111111000000001111000000001111 K
0C
b111101100 D
b111101100 I
b111101100 d
0@
b0 B
b0 e
b0 Q"
b0 A
b0 f
b0 R"
b111001100 [
b11101 N
b1110 _
b111011101 ^
b11110 O
b1 `
b1100 Q
b1100011 R
b11111 g
b11111 i
b111 q
b11111111 p
b0 k
b1 l
b110111 m
b100100 9
b100100 s
b100100 z
b100100 *"
b1111111100000001000010110111 8
b1111111100000001000010110111 t
b1111111100000001000010110111 {
b1111111100000001000010110111 &"
b11111111000000001000000010010011 .
b11111111000000001000000010010011 ="
b11111111000000001000000010010011 A"
b11111111000000001000000010010011 J"
b11111111000000001000000010010011 '
b11111111000000001000000010010011 ,
b11111111000000001000000010010011 K"
b11111111000000001000000010010011 W"
0:
b0 ;
b0 P
b0 !"
b0 9"
b11111111000000001111000000001111 <
b11111111000000001111000000001111 S
b11111111000000001111000000001111 ""
b11111111000000001111000000001111 5"
b0 T
b0 U
b11111110000000011110000000011110 Y
b11111111000000001111000000001111 =
b11111111000000001111000000001111 Z
b11111111000000001111000000001111 #"
b11111111000000001111000000001111 1"
b100100 b
b111101100 a
b100000 ?
b100000 ]
b100000 %"
b100000 -"
b11101110111110001011001100011 >
b11101110111110001011001100011 \
b11101110111110001011001100011 $"
b11101110111110001011001100011 )"
b10 #
b100100 1
b100100 o
b100100 >"
b100100 G"
b1111111100000001000010110111 0
b1111111100000001000010110111 n
b1111111100000001000010110111 <"
b1111111100000001000010110111 C"
b101000 /
b101000 ?"
b101000 E"
b101000 I"
b101000 (
b101000 -
b101000 H"
b101000 V"
b101000 +
b101000 L"
b101000 N"
1$
#230
0$
#240
b1111111100000001000000000000 *
b1111111100000001000000000000 j
b1111111100000001000000000000 S"
b11111111111111111111111111110000 6
b11111111111111111111111111110000 v
b11111111111111111111111111110000 }
b11111111111111111111111111110000 2"
b1 3
b1 x
b1 O"
1@
b1 B
b1 e
b1 Q"
b1111111100000001000000000000 A
b1111111100000001000000000000 f
b1111111100000001000000000000 R"
b0 G
b0 J
b0 M"
b10000 g
b10000 i
b1111111 q
b111111110000 p
b1 k
b0 r
b10011 m
b1111111100000001000000000000 7
b1111111100000001000000000000 u
b1111111100000001000000000000 |
b1111111100000001000000000000 ."
b101000 9
b101000 s
b101000 z
b101000 *"
b11111111000000001000000010010011 8
b11111111000000001000000010010011 t
b11111111000000001000000010010011 {
b11111111000000001000000010010011 &"
b100011100000 [
b11111 N
b111 _
b11111111 ^
b0 O
b1 Q
b110111 R
b11111111111111111111111111111111 c
0X
b1111111100000001000000000000 L
b1111111100000001000000000000 M
b0 K
b0 D
b0 I
b0 d
b1111000000001100111100010011 .
b1111000000001100111100010011 ="
b1111000000001100111100010011 A"
b1111000000001100111100010011 J"
b1111000000001100111100010011 '
b1111000000001100111100010011 ,
b1111000000001100111100010011 K"
b1111000000001100111100010011 W"
b11111111000000001000000010010011 0
b11111111000000001000000010010011 n
b11111111000000001000000010010011 <"
b11111111000000001000000010010011 C"
b101000 1
b101000 o
b101000 >"
b101000 G"
b1111111100000001000010110111 >
b1111111100000001000010110111 \
b1111111100000001000010110111 $"
b1111111100000001000010110111 )"
b101000 b
b100100000100 a
b100100 ?
b100100 ]
b100100 %"
b100100 -"
b1111111100000001000000000000 =
b1111111100000001000000000000 Z
b1111111100000001000000000000 #"
b1111111100000001000000000000 1"
b1111111100000001000000000000 T
b1111111100000001000000000000 U
b1111111100000001000000000000 Y
b0 <
b0 S
b0 ""
b0 5"
b1 ;
b1 P
b1 !"
b1 9"
1:
b101100 /
b101100 ?"
b101100 E"
b101100 I"
b101100 (
b101100 -
b101100 H"
b101100 V"
b101100 +
b101100 L"
b101100 N"
1$
#250
0$
